2.631635617065429642e+02
2.746631792068481559e+01
1.703165464401245188e+01
1.540765985488891587e+01
1.390193408966064403e+01
1.290885817527770918e+01
1.203769750595092702e+01
1.120935424804687486e+01
1.052881259918212820e+01
9.802350997924804688e+00
9.384935054779052876e+00
8.885213599205016521e+00
8.532870011329650950e+00
8.226340570449828249e+00
7.931310105323791326e+00
7.804556860923766770e+00
7.396487607955932297e+00
7.356087961196899450e+00
7.271216368675231578e+00
7.067327318191527930e+00
6.993577823638916335e+00
6.872760529518127548e+00
6.822010684013366522e+00
6.680266480445862243e+00
6.395122141838073482e+00
6.360543637275696049e+00
6.315544662475585547e+00
6.234379034042358825e+00
6.221423139572143768e+00
6.121485371589660218e+00
6.127545084953307963e+00
6.087815303802489808e+00
6.058962216377258514e+00
6.014839625358581188e+00
5.978334555625915314e+00
6.026746902465820455e+00
5.948179874420166158e+00
5.913640666007995428e+00
5.950703883171081898e+00
5.883253970146179235e+00
5.669785933494567942e+00
5.762094407081604253e+00
5.564154362678527477e+00
5.626854219436645543e+00
5.610387063026427867e+00
5.595974311828613601e+00
5.558372974395751953e+00
5.474325389862060298e+00
5.426546516418457422e+00
5.321231155395508061e+00
